<svg xmlns="http://www.w3.org/2000/svg" width="24" height="24" viewBox="0 0 24 24">
  <title>computer-fan</title>
  <rect width="24" height="24" fill="none"/>
  <path d="M15.86,11a4,4,0,0,0-.33-.83,4.81,4.81,0,0,0,1.33-3.31A4.87,4.87,0,0,0,12,2H11V8.14a4,4,0,0,0-.83.33A4.81,4.81,0,0,0,6.86,7.14,4.87,4.87,0,0,0,2,12v1H8.14a3.78,3.78,0,0,0,.33.83A4.84,4.84,0,0,0,12,22h1V15.86a4.6,4.6,0,0,0,.83-.32A4.85,4.85,0,0,0,22,12V11ZM8.14,11h-4A2.87,2.87,0,0,1,6.86,9.14a2.83,2.83,0,0,1,1.81.66A3.92,3.92,0,0,0,8.14,11ZM11,19.82a2.84,2.84,0,0,1-1.2-4.49,4.18,4.18,0,0,0,1.2.53v4ZM12,14a2,2,0,1,1,2-2A2,2,0,0,1,12,14Zm2.2-5.33A3.92,3.92,0,0,0,13,8.14v-4a2.88,2.88,0,0,1,1.86,2.68A2.83,2.83,0,0,1,14.2,8.67Zm2.94,6.19a2.83,2.83,0,0,1-1.81-.66,3.92,3.92,0,0,0,.53-1.2h4A2.86,2.86,0,0,1,17.14,14.86Z" fill="#4e4e4e"/>
</svg>
