<svg xmlns="http://www.w3.org/2000/svg" width="24" height="24" viewBox="0 0 24 24">
  <title>globe</title>
  <rect width="24" height="24" fill="none"/>
  <g>
    <path d="M18.08,16.07a10,10,0,0,0,0-14.14L16.66,3.34A8,8,0,0,1,5.35,14.66L3.93,16.07A10,10,0,0,0,10,19V20H5v2H17V20H12V19A10,10,0,0,0,18.08,16.07Z" fill="#4e4e4e"/>
    <path d="M11,15A6,6,0,1,0,5,9,6,6,0,0,0,11,15ZM11,5A4,4,0,1,1,7,9,4,4,0,0,1,11,5Z" fill="#4e4e4e"/>
  </g>
</svg>
