<svg xmlns="http://www.w3.org/2000/svg" width="24" height="24" viewBox="0 0 24 24">
  <title>server-1</title>
  <rect width="24" height="24" fill="none"/>
  <g>
    <path d="M20,2H4A2,2,0,0,0,2,4V20a2,2,0,0,0,2,2H20a2,2,0,0,0,2-2V4A2,2,0,0,0,20,2Zm0,2V8H4V4Zm0,6v4H4V10ZM4,20V16H20v4Z" fill="#4e4e4e"/>
    <rect x="5" y="5" width="5" height="2" fill="#4e4e4e"/>
    <rect x="5" y="11" width="5" height="2" fill="#4e4e4e"/>
    <rect x="5" y="17" width="5" height="2" fill="#4e4e4e"/>
    <circle cx="15" cy="6" r="1" fill="#4e4e4e"/>
    <circle cx="18" cy="6" r="1" fill="#4e4e4e"/>
    <circle cx="15" cy="12" r="1" fill="#4e4e4e"/>
    <circle cx="18" cy="12" r="1" fill="#4e4e4e"/>
    <circle cx="15" cy="18" r="1" fill="#4e4e4e"/>
    <circle cx="18" cy="18" r="1" fill="#4e4e4e"/>
  </g>
</svg>
