﻿*.0
*.$NCZ
*.$KTB
EDITOR.KTB
EDITOR.KTB
*.TMP
*.SW
*.CSS
*.EXE
*.DLL
*.PDB
*.BAK
*.CTB


*.BIN
*._DT
*._OFF
*._SX1
*.AID
*.B29
*.BACKUP
*.CAD
*.CDS
*.CFS
*.CFX
*.CONFIG
*.CPG
*.CSPROJ
*.DAT
*.DATA
*.DB
*.EOT
*.FDT
*.FDX
*.FNM
*.FRQ
*.GEN
*.GITATTRIBUTES
*.GITIGNORE
*.HTA
*.IA5
*.ICF
*.ID
*.IDX
*.IND
*.INDEX
*.INF
*.INI
*.JS
*.JS_SIL
*.JSETTINGS
*.JSON
*.KA5
*.KAE
*.LANG
*.LOCK
*.MAP
*.MD
*.N
*.NCP
*.NE1
*.NE2
*.NE3
*.NET
*.NRG
*.NRM
*.ORIGINAL
*.OTF
*.PACK
*.PRJ
*.PRX
*.QGS
*.QGS~
*.QIX
*.QPJ
*.REF
*.RESX
*.RESX_OLD
*.SAMPLE
*.SBN
*.SBX
*.SCSS
*.SHX
*.TAP
*.TCT
*.TII
*.TIS
*.TTF
*.TVD
*.TVF
*.TVX
*.TX
*.TXV
*.WKT
*.WOFF
*.WOFF2
*.SYS